{
  "properties": [
    {
      "name": "org.evgeny.mocknewsfeed.tcp.server.host",
      "type": "java.lang.String",
      "description": "The host of the News Analyser."
    },
    {
      "name": "org.evgeny.mocknewsfeed.tcp.server.port",
      "type": "java.lang.String",
      "description": "The port of the News Analyser."
    },
    {
      "name": "org.evgeny.mocknewsfeed.frequency",
      "type": "java.lang.String",
      "description": "The frequency of news items being emitted by the feed."
    },
    {
      "name": "org.evgeny.mocknewsfeed.news.default.words",
      "type": "java.lang.String",
      "description": "The set of words used in message generation."
    },
    {
      "name": "org.evgeny.mocknewsfeed.news.default.priorities",
      "type": "java.lang.String",
      "description": "The probabilities of the priorities from 0 to N specified as percents."
    },
    {
      "name": "org.evgeny.mocknewsfeed.news.default.minwordsnum",
      "type": "java.lang.String",
      "description": "The minimum amount of words in a generated message."
    },
    {
      "name": "org.evgeny.mocknewsfeed.news.default.maxwordsnum",
      "type": "java.lang.String",
      "description": "The maximum amount of words in a generated message."
    }
  ]
}
